{
	"info": {
		"_postman_id": "6c7712bd-2b00-4fd1-971e-114ddb628131",
		"name": "Prueba tyba",
		"schema": "https://schema.getpostman.com/json/collection/v2.1.0/collection.json"
	},
	"item": [
		{
			"name": "Auth",
			"item": [
				{
					"name": "Check email",
					"request": {
						"method": "GET",
						"header": [],
						"url": {
							"raw": "{{url}}{{api-version}}/auth/checkemail/allensmilko@gmail.com",
							"host": [
								"{{url}}{{api-version}}"
							],
							"path": [
								"auth",
								"checkemail",
								"allensmilko@gmail.com"
							]
						}
					},
					"response": []
				},
				{
					"name": "Register",
					"request": {
						"method": "POST",
						"header": [
							{
								"key": "Content-Type",
								"name": "Content-Type",
								"value": "application/x-www-form-urlencoded",
								"type": "text"
							}
						],
						"body": {
							"mode": "urlencoded",
							"urlencoded": [
								{
									"key": "username",
									"value": "Jeison Camilo Castañeda Puerta",
									"type": "text"
								},
								{
									"key": "email",
									"value": "allensmilko@gmail.com1",
									"type": "text"
								},
								{
									"key": "password",
									"value": "ssss",
									"type": "text"
								}
							]
						},
						"url": {
							"raw": "{{url}}{{api-version}}/auth/register",
							"host": [
								"{{url}}{{api-version}}"
							],
							"path": [
								"auth",
								"register"
							]
						}
					},
					"response": []
				},
				{
					"name": "Update me",
					"request": {
						"method": "POST",
						"header": [
							{
								"key": "Content-Type",
								"name": "Content-Type",
								"value": "application/x-www-form-urlencoded",
								"type": "text"
							},
							{
								"key": "Authorization",
								"value": "{{auth}}",
								"type": "text"
							}
						],
						"body": {
							"mode": "urlencoded",
							"urlencoded": [
								{
									"key": "username",
									"value": "Jeison Castañeda",
									"type": "text"
								}
							]
						},
						"url": {
							"raw": "{{url}}{{api-version}}/auth/update-me",
							"host": [
								"{{url}}{{api-version}}"
							],
							"path": [
								"auth",
								"update-me"
							]
						}
					},
					"response": []
				},
				{
					"name": "Login",
					"request": {
						"method": "POST",
						"header": [
							{
								"key": "Content-Type",
								"name": "Content-Type",
								"value": "application/x-www-form-urlencoded",
								"type": "text"
							},
							{
								"key": "Authorization",
								"value": "{{auth}}",
								"type": "text"
							}
						],
						"body": {
							"mode": "urlencoded",
							"urlencoded": [
								{
									"key": "email",
									"value": "allensmilko@gmail.com1",
									"type": "text"
								},
								{
									"key": "password",
									"value": "ssss",
									"type": "text"
								}
							],
							"options": {
								"raw": {
									"language": "json"
								}
							}
						},
						"url": {
							"raw": "{{url}}{{api-version}}/geo/new-city",
							"host": [
								"{{url}}{{api-version}}"
							],
							"path": [
								"geo",
								"new-city"
							]
						}
					},
					"response": []
				},
				{
					"name": "Me",
					"protocolProfileBehavior": {
						"disableBodyPruning": true
					},
					"request": {
						"method": "GET",
						"header": [
							{
								"key": "Content-Type",
								"name": "Content-Type",
								"value": "application/x-www-form-urlencoded",
								"type": "text"
							},
							{
								"key": "Authorization",
								"value": "{{auth}}",
								"type": "text"
							}
						],
						"body": {
							"mode": "urlencoded",
							"urlencoded": []
						},
						"url": {
							"raw": "{{url}}{{api-version}}/auth/me",
							"host": [
								"{{url}}{{api-version}}"
							],
							"path": [
								"auth",
								"me"
							]
						}
					},
					"response": []
				}
			],
			"event": [
				{
					"listen": "prerequest",
					"script": {
						"id": "8461e518-a8ce-4a85-8d8b-793f25a67a36",
						"type": "text/javascript",
						"exec": [
							""
						]
					}
				},
				{
					"listen": "test",
					"script": {
						"id": "5796fb44-64a2-4af3-98d8-381f8d94f652",
						"type": "text/javascript",
						"exec": [
							""
						]
					}
				}
			],
			"protocolProfileBehavior": {}
		},
		{
			"name": "Geo",
			"item": [
				{
					"name": "New city",
					"request": {
						"method": "POST",
						"header": [
							{
								"key": "Content-Type",
								"name": "Content-Type",
								"value": "application/json",
								"type": "text"
							}
						],
						"body": {
							"mode": "raw",
							"raw": "{\n\t\"name\": \"Cali \",\n\t\"latitude\":  3.4517923,\n\t\"longitude\": -76.5324943\n}",
							"options": {
								"raw": {
									"language": "json"
								}
							}
						},
						"url": {
							"raw": "{{url}}{{api-version}}/geo/new-city",
							"host": [
								"{{url}}{{api-version}}"
							],
							"path": [
								"geo",
								"new-city"
							]
						}
					},
					"response": []
				},
				{
					"name": "Get cities",
					"request": {
						"method": "GET",
						"header": [
							{
								"key": "Content-Type",
								"name": "Content-Type",
								"value": "application/json",
								"type": "text"
							}
						],
						"url": {
							"raw": "{{url}}{{api-version}}/geo/get-cities?perPage=3&page=1",
							"host": [
								"{{url}}{{api-version}}"
							],
							"path": [
								"geo",
								"get-cities"
							],
							"query": [
								{
									"key": "perPage",
									"value": "3"
								},
								{
									"key": "page",
									"value": "1"
								}
							]
						}
					},
					"response": []
				},
				{
					"name": "Get nearby cities",
					"request": {
						"method": "GET",
						"header": [
							{
								"key": "Content-Type",
								"name": "Content-Type",
								"value": "application/json",
								"type": "text"
							},
							{
								"key": "Authorization",
								"value": "{{auth}}",
								"type": "text"
							}
						],
						"url": {
							"raw": "{{url}}{{api-version}}/geo/get-nenarby-cities/-75.5874132/6.1701345/?perPage10&page=1",
							"host": [
								"{{url}}{{api-version}}"
							],
							"path": [
								"geo",
								"get-nenarby-cities",
								"-75.5874132",
								"6.1701345",
								""
							],
							"query": [
								{
									"key": "perPage10",
									"value": null
								},
								{
									"key": "page",
									"value": "1"
								}
							]
						}
					},
					"response": []
				}
			],
			"protocolProfileBehavior": {}
		},
		{
			"name": "Get failover",
			"protocolProfileBehavior": {
				"disableBodyPruning": true
			},
			"request": {
				"method": "GET",
				"header": [
					{
						"key": "Content-Type",
						"name": "Content-Type",
						"value": "application/x-www-form-urlencoded",
						"type": "text"
					},
					{
						"key": "Authorization",
						"value": "{{auth}}",
						"type": "text"
					}
				],
				"body": {
					"mode": "urlencoded",
					"urlencoded": []
				},
				"url": {
					"raw": "{{url}}{{api-version}}/failover",
					"host": [
						"{{url}}{{api-version}}"
					],
					"path": [
						"failover"
					]
				}
			},
			"response": []
		}
	],
	"protocolProfileBehavior": {}
}